…
``` r
# install.packages("devtools")
devtools::install_github("ulchc/vary")
```

## Usage

After installation from GitHub, you can load it with:

``` r
library(vary)
```

    #> An example of data with mismatched columns: 'country' <-> 'type'
    #> # A tibble: 12 × 4
    #>   country      year type           count
    #>   <chr>       <int> <chr>          <int>
    #> 1 cases        1999 Afghanistan      745
    #> 2 population   1999 Afghanistan 19987071
    #> 3 Afghanistan  2000 cases           2666
    #> 4 population   2000 Afghanistan 20595360
    #> 5 Brazil       1999 cases          37737
    #> # … with 7 more rows
…
